[
    {
        "_id": "b-100",
        "_parentId": "a-10",
        "_type": "block",
        "_classes": "",
        "body": "",
        "displayTitle": "",
        "title": "",
        "_trackingId": 0
    },
    {
        "_id": "b-105",
        "_parentId": "a-10",
        "_type": "block",
        "_classes": "",
        "body": "",
        "displayTitle": "",
        "title": "",
        "_trackingId": 1
    },
    {
        "_id": "b-120",
        "_parentId": "a-10",
        "_type": "block",
        "_classes": "",
        "body": "",
        "displayTitle": "",
        "title": "",
        "_trackingId": 2
    },
    {
        "_id": "b-130",
        "_parentId": "a-10",
        "_type": "block",
        "_classes": "",
        "body": "",
        "displayTitle": "",
        "title": "",
        "_trackingId": 3
    },
    {
        "_id": "b-135",
        "_parentId": "a-10",
        "_type": "block",
        "_classes": "",
        "body": "",
        "displayTitle": "",
        "title": "",
        "_trackingId": 4
    },
    {
        "_id": "b-140",
        "_parentId": "a-10",
        "_type": "block",
        "_classes": "",
        "body": "",
        "displayTitle": "",
        "title": "",
        "_trackingId": 5
    },
    {
        "_id": "b-199",
        "_parentId": "a-10",
        "_type": "block",
        "_classes": "",
        "body": "",
        "displayTitle": "",
        "title": "",
        "_trackingId": 6
    },
    {
        "_id": "b-200",
        "_parentId": "a-20",
        "_type": "block",
        "_classes": "",
        "body": "",
        "displayTitle": "",
        "title": "",
        "_trackingId": 7
    },
    {
        "_id": "b-205",
        "_parentId": "a-20",
        "_type": "block",
        "_classes": "",
        "body": "",
        "displayTitle": "",
        "title": "",
        "_trackingId": 8
    },
    {
        "_id": "b-210",
        "_parentId": "a-20",
        "_type": "block",
        "_classes": "",
        "body": "",
        "displayTitle": "",
        "title": "",
        "_trackingId": 9
    },
    {
        "_id": "b-220",
        "_parentId": "a-20",
        "_type": "block",
        "_classes": "",
        "body": "",
        "displayTitle": "",
        "title": "",
        "_trackingId": 10
    },
    {
        "_id": "b-310",
        "_parentId": "a-30",
        "_type": "block",
        "_classes": "",
        "body": "",
        "displayTitle": "",
        "title": "",
        "_trackingId": 11
    },
    {
        "_id": "b-315",
        "_parentId": "a-30",
        "_type": "block",
        "_classes": "",
        "body": "",
        "displayTitle": "",
        "title": "",
        "_trackingId": 12
    },
    {
        "_id": "b-320",
        "_parentId": "a-30",
        "_type": "block",
        "_classes": "",
        "body": "",
        "displayTitle": "",
        "title": "",
        "_trackingId": 13
    },
    {
        "_id": "b-399",
        "_parentId": "a-35",
        "_type": "block",
        "_classes": "",
        "body": "",
        "displayTitle": "",
        "title": "",
        "_trackingId": 14
    },
    {
        "_id": "b-400",
        "_parentId": "a-40",
        "_type": "block",
        "_classes": "",
        "body": "",
        "displayTitle": "",
        "title": "",
        "_trackingId": 15
    },
    {
        "_id": "b-410",
        "_parentId": "a-40",
        "_type": "block",
        "_classes": "",
        "body": "",
        "displayTitle": "",
        "title": "",
        "_trackingId": 16
    },
    {
        "_id": "b-499",
        "_parentId": "a-40",
        "_type": "block",
        "_classes": "",
        "body": "",
        "displayTitle": "",
        "title": "",
        "_trackingId": 17
    },
    {
        "_id": "b-505",
        "_parentId": "a-50",
        "_type": "block",
        "_classes": "",
        "body": "",
        "displayTitle": "",
        "title": "",
        "_trackingId": 18
    },
    {
        "_id": "b-515",
        "_parentId": "a-55",
        "_type": "block",
        "_classes": "",
        "body": "",
        "displayTitle": "",
        "title": "",
        "_trackingId": 19
    },
    {
        "_id": "b-520",
        "_parentId": "a-55",
        "_type": "block",
        "_classes": "",
        "body": "",
        "displayTitle": "",
        "title": "",
        "_trackingId": 20
    },
    {
        "_id": "b-525",
        "_parentId": "a-55",
        "_type": "block",
        "_classes": "",
        "body": "",
        "displayTitle": "",
        "title": "",
        "_trackingId": 21
    },
    {
        "_id": "b-530",
        "_parentId": "a-55",
        "_type": "block",
        "_classes": "",
        "body": "",
        "displayTitle": "",
        "title": "",
        "_trackingId": 22
    },
    {
        "_id": "b-535",
        "_parentId": "a-55",
        "_type": "block",
        "_classes": "",
        "body": "",
        "displayTitle": "",
        "title": "",
        "_trackingId": 23
    },
    {
        "_id": "b-540",
        "_parentId": "a-55",
        "_type": "block",
        "_classes": "",
        "body": "",
        "displayTitle": "",
        "title": "",
        "_trackingId": 24
    },
    {
        "_id": "b-541",
        "_parentId": "a-55",
        "_type": "block",
        "_classes": "",
        "body": "",
        "displayTitle": "",
        "title": "",
        "_trackingId": 25
    },
    {
        "_id": "b-545",
        "_parentId": "a-56",
        "_type": "block",
        "_classes": "",
        "body": "",
        "displayTitle": "",
        "title": "",
        "_trackingId": 26
    },
    {
        "_id": "b-550",
        "_parentId": "a-56",
        "_type": "block",
        "_classes": "",
        "body": "",
        "displayTitle": "",
        "title": "",
        "_trackingId": 27
    },
    {
        "_id": "b-599",
        "_parentId": "a-56",
        "_type": "block",
        "_classes": "",
        "body": "",
        "displayTitle": "",
        "title": "",
        "_trackingId": 28
    },
    {
        "_id": "b-600",
        "_parentId": "a-60",
        "_type": "block",
        "_classes": "",
        "body": "",
        "displayTitle": "",
        "title": "",
        "_trackingId": 29
    },
    {
        "_id": "b-605",
        "_parentId": "a-60",
        "_type": "block",
        "_classes": "",
        "body": "",
        "displayTitle": "",
        "title": "",
        "_trackingId": 30
    },
    {
        "_id": "b-608",
        "_parentId": "a-60",
        "_type": "block",
        "_classes": "",
        "body": "",
        "displayTitle": "",
        "title": "",
        "_trackingId": 31
    },
    {
        "_id": "b-610",
        "_parentId": "a-60",
        "_type": "block",
        "_classes": "",
        "body": "",
        "displayTitle": "",
        "title": "",
        "_trackingId": 32
    },
    {
        "_id": "b-612",
        "_parentId": "a-60",
        "_type": "block",
        "_classes": "",
        "body": "",
        "displayTitle": "",
        "title": "",
        "_trackingId": 33
    },
    {
        "_id": "b-615",
        "_parentId": "a-60",
        "_type": "block",
        "_classes": "",
        "body": "",
        "displayTitle": "",
        "title": "",
        "_trackingId": 34
    },
    {
        "_id": "b-618",
        "_parentId": "a-60",
        "_type": "block",
        "_classes": "",
        "body": "",
        "displayTitle": "",
        "title": "",
        "_trackingId": 35
    },
    {
        "_id": "b-620",
        "_parentId": "a-60",
        "_type": "block",
        "_classes": "",
        "body": "",
        "displayTitle": "",
        "title": "",
        "_trackingId": 36
    },
    {
        "_id": "b-621",
        "_parentId": "a-60",
        "_type": "block",
        "_classes": "",
        "body": "",
        "displayTitle": "",
        "title": "",
        "_trackingId": 37
    },
    {
        "_id": "b-625",
        "_parentId": "a-60",
        "_type": "block",
        "_classes": "",
        "body": "",
        "displayTitle": "",
        "title": "",
        "_trackingId": 38
    },
    {
        "_id": "b-628",
        "_parentId": "a-60",
        "_type": "block",
        "_classes": "",
        "body": "",
        "displayTitle": "",
        "title": "",
        "_trackingId": 39
    },
    {
        "_id": "b-630",
        "_parentId": "a-60",
        "_type": "block",
        "_classes": "",
        "body": "",
        "displayTitle": "",
        "title": "",
        "_trackingId": 40
    },
    {
        "_id": "b-635",
        "_parentId": "a-60",
        "_type": "block",
        "_classes": "",
        "body": "",
        "displayTitle": "",
        "title": "",
        "_trackingId": 41
    },
    {
        "_id": "b-640",
        "_parentId": "a-60",
        "_type": "block",
        "_classes": "",
        "body": "",
        "displayTitle": "",
        "title": "",
        "_trackingId": 42
    },
    {
        "_id": "b-645",
        "_parentId": "a-60",
        "_type": "block",
        "_classes": "",
        "body": "",
        "displayTitle": "",
        "title": "",
        "_trackingId": 43
    },
    {
        "_id": "b-699",
        "_parentId": "a-60",
        "_type": "block",
        "_classes": "",
        "body": "",
        "displayTitle": "",
        "title": "",
        "_trackingId": 44
    },
    {
        "_id": "b-700",
        "_parentId": "a-70",
        "_type": "block",
        "_classes": "",
        "body": "",
        "displayTitle": "",
        "title": "",
        "_trackingId": 45
    },
    {
        "_id": "b-705",
        "_parentId": "a-70",
        "_type": "block",
        "_classes": "",
        "body": "",
        "displayTitle": "",
        "title": "",
        "_trackingId": 46
    },
    {
        "_id": "b-710",
        "_parentId": "a-70",
        "_type": "block",
        "_classes": "",
        "body": "",
        "displayTitle": "",
        "title": "",
        "_trackingId": 47
    },
    {
        "_id": "b-715",
        "_parentId": "a-70",
        "_type": "block",
        "_classes": "",
        "body": "",
        "displayTitle": "",
        "title": "",
        "_trackingId": 48
    },
    {
        "_id": "b-720",
        "_parentId": "a-70",
        "_type": "block",
        "_classes": "",
        "body": "",
        "displayTitle": "",
        "title": "",
        "_trackingId": 49
    },
    {
        "_id": "b-799",
        "_parentId": "a-70",
        "_type": "block",
        "_classes": "",
        "body": "",
        "displayTitle": "",
        "title": "",
        "_trackingId": 50
    },
    {
        "_id": "b-805",
        "_parentId": "a-80",
        "_type": "block",
        "_classes": "",
        "body": "",
        "displayTitle": "",
        "title": "",
        "_trackingId": 51
    },
    {
        "_id": "b-810",
        "_parentId": "a-80",
        "_type": "block",
        "_classes": "",
        "body": "",
        "displayTitle": "",
        "title": "",
        "_trackingId": 52
    },
    {
        "_id": "b-815",
        "_parentId": "a-80",
        "_type": "block",
        "_classes": "",
        "body": "",
        "displayTitle": "",
        "title": "",
        "_trackingId": 53
    },
    {
        "_id": "b-820",
        "_parentId": "a-80",
        "_type": "block",
        "_classes": "",
        "body": "",
        "displayTitle": "",
        "title": "",
        "_trackingId": 54
    },
    {
        "_id": "b-825",
        "_parentId": "a-80",
        "_type": "block",
        "_classes": "",
        "body": "",
        "displayTitle": "",
        "title": "",
        "_trackingId": 55
    },
    {
        "_id": "b-830",
        "_parentId": "a-80",
        "_type": "block",
        "_classes": "",
        "body": "",
        "displayTitle": "",
        "title": "",
        "_trackingId": 56
    },
    {
        "_id": "b-899",
        "_parentId": "a-80",
        "_type": "block",
        "_classes": "",
        "body": "",
        "displayTitle": "",
        "title": "",
        "_trackingId": 57
    },
    {
        "_id": "b-910",
        "_parentId": "a-90",
        "_type": "block",
        "_classes": "",
        "body": "",
        "displayTitle": "",
        "title": "",
        "_trackingId": 58
    },
    {
        "_id": "b-920",
        "_parentId": "a-90",
        "_type": "block",
        "_classes": "",
        "body": "",
        "displayTitle": "",
        "title": "",
        "_trackingId": 59
    },
    {
        "_id": "b-930",
        "_parentId": "a-90",
        "_type": "block",
        "_classes": "",
        "body": "",
        "displayTitle": "",
        "title": "",
        "_trackingId": 60
    },
    {
        "_id": "b-940",
        "_parentId": "a-90",
        "_type": "block",
        "_classes": "",
        "body": "",
        "displayTitle": "",
        "title": "",
        "_trackingId": 61
    }
]