﻿[{
	"_id": "co-01",
	"_parentId": "course",
	"height":"570",
	"_type": "page",
	"_graphic": {
		"alt": "",
		"src": "course/en/images/00_contentObjects/landing_01.png"
	},
	"durationLabel": "Süre:",
	"duration": "2 dk",
	"_classes": "",
	"displayTitle": "Giriş",
	"title": "Giriş",
	"body": "Messenger Platformu’nda mevcut ve potansiyel müşterilerinizle iletişim kurmanızı sağlayacak bir deneyimi nasıl oluşturacağınızı öğrenin.",
	"linkText": "Görüntüle",
	"_pageLevelProgress": {
			"_isEnabled": true
		}
},
{
	"_id": "co-02",
	"_parentId": "course",
	"height":"570",
	"_type": "page",
	"_graphic": {
		"alt": "",
		"src": "course/en/images/00_contentObjects/landing_02.png"
	},
	"durationLabel": "Süre:",
	"duration": "4 dk",
	"_classes": "",
	"displayTitle": "Hedef Kitlenizi Tanıma",
	"title": "Hedef Kitlenizi Tanıma",
	"body": "Hedef kitlenizi daha iyi anlamak için müşterilerinizle mevcut etkileşimlerinizi inceleyin.",
	"linkText": "Görüntüle",
	"_pageLevelProgress": {
			"_isEnabled": true
		}
},
{
	"_id": "co-03",
	"_parentId": "course",
	"height":"570",
	"_type": "page",
	"_graphic": {
		"alt": "",
		"src": "course/en/images/00_contentObjects/landing_03.png"
	},
	"durationLabel": "Süre:",
	"duration": "5 dk",
	"_classes": "",
	"displayTitle": "İşletme Hedefini ve Proje Kapsamını Belirleme",
	"title": "İşletme Hedefini ve Proje Kapsamını Belirleme",
	"body": "Bilinirliğinizi artırmaktan müşteri desteği sunmaya kadar çeşitli işletme hedefleri için Messenger’ı nasıl kullanabileceğinizi öğrenin.",
	"linkText": "Görüntüle",
	"_pageLevelProgress": {
			"_isEnabled": true
		}
},
{
	"_id": "co-04",
	"_parentId": "course",
	"height":"570",
	"_type": "page",
	"_graphic": {
		"alt": "",
		"src": "course/en/images/00_contentObjects/landing_04.png"
	},
	"durationLabel": "Süre:",
	"duration": "4 dk",
	"_classes": "",
	"displayTitle": "Bir Geliştirme Stratejisi Planlama",
	"title": "Bir Geliştirme Stratejisi Planlama",
	"body": "Deneyiminizi işletme içindeki bir ekiple mi yoksa dış kaynaklarla mı oluşturacağınıza karar verin.",
	"linkText": "Görüntüle",
	"_pageLevelProgress": {
			"_isEnabled": true
		}
},
{
	"_id": "co-05",
	"_parentId": "course",
	"height":"570",
	"_type": "page",
	"_graphic": {
		"alt": "",
		"src": "course/en/images/00_contentObjects/landing_05.png"
	},
	"durationLabel": "Süre:",
	"duration": "4 dk",
	"_classes": "",
	"displayTitle": "Deneyiminizi Oluşturma ve Kullanıma Alma",
	"title": "Deneyiminizi Oluşturma ve Kullanıma Alma",
	"body": "Deneyiminizi oluştururken bu dört unsuru göz önünde bulundurun.",
	"linkText": "Görüntüle",
	"_pageLevelProgress": {
			"_isEnabled": true
		}
},
{
    "_id": "co-06",
	"_parentId": "course",
	"height":"570",
	"_type": "page",
	"_graphic": {
		"alt": "",
		"src": "course/en/images/00_contentObjects/landing_06.png"
	},
	"durationLabel": "Süre:",
	"duration": "4 dk",
	"_classes": "",
	"displayTitle": "İletişimi Teşvik Etme",
	"title": "İletişimi Teşvik Etme",
	"body": "Messenger’daki deneyiminiz için keşif ve etkileşimi artırın.",
	"linkText": "Görüntüle",
	"_pageLevelProgress": {
			"_isEnabled": true
		}
},
{
    "_id": "co-07",
	"_parentId": "course",
	"height":"570",
	"_type": "page",
	"_graphic": {
		"alt": "",
		"src": "course/en/images/00_contentObjects/landing_07.png"
	},
	"durationLabel": "Süre:",
	"duration": "4 dk",
	"_classes": "",
	"displayTitle": "Sürekli Gelişme Stratejisi Benimseme",
	"title": "Sürekli Gelişme Stratejisi Benimseme",
	"body": "Sürekli test ve değişiklikler yaparak deneyiminizden en verimli şekilde yararlanın.",
	"linkText": "Görüntüle",
	"_pageLevelProgress": {
			"_isEnabled": true
		}
},
{
	"_id": "co-08",
	"_parentId": "course",
	"height":"570",
	"_type": "page",
	"_graphic": {
		"alt": "",
		"src": "course/en/images/00_contentObjects/landing_08.png"
	},
	"durationLabel": "Süre:",
	"duration": "3 dk",
	"_classes": "",
	"displayTitle": "Başarı Hikayeleri",
	"title": "Başarı Hikayeleri",
	"body": "İşletmelerin Messenger Platformu’nda nasıl başarılı deneyimler oluşturduklarını öğrenin.",
	"linkText": "Görüntüle",
	"_pageLevelProgress": {
			"_isEnabled": true
        		}
},
{
	"_id": "co-09",
	"_parentId": "course",
	"height":"570",
	"_type": "page",
	"_graphic": {
		"alt": "",
		"src": "course/en/images/00_contentObjects/landing_09.png"
	},
	"durationLabel": "Süre:",
	"duration": "3 dk",
	"_classes": "",
	"displayTitle": "Bilgi Kontrolü",
	"title": "Bilgi Kontrolü",
	"body": "Messenger Platformu hakkında öğrendiklerinizi gözden geçirmek için kısa bir teste katılın.",
	"linkText": "Görüntüle",
	"_pageLevelProgress": {
			"_isEnabled": true
		}
}
]